---
http_interactions:
- request:
    method: get
    uri: https://www.flickr.com/services/rest?api_key=a14ff48732412aa961d9b773ca494e7d&format=json&method=flickr.photos.search&nojsoncallback=1&per_page=1&text=1234
    body:
      encoding: US-ASCII
      string: ''
    headers:
      User-Agent:
      - Faraday v1.4.1
      Accept-Encoding:
      - gzip;q=1.0,deflate;q=0.6,identity;q=0.3
      Accept:
      - "*/*"
  response:
    status:
      code: 200
      message: OK
    headers:
      Content-Type:
      - application/json
      Content-Length:
      - '238'
      Connection:
      - keep-alive
      Date:
      - Wed, 28 Apr 2021 05:24:50 GMT
      Server:
      - Apache/2.4.46 (Ubuntu)
      Set-Cookie:
      - ccc=%7B%22needsConsent%22%3Afalse%2C%22managed%22%3A0%2C%22changed%22%3A0%2C%22info%22%3A%7B%22cookieBlock%22%3A%7B%22level%22%3A0%2C%22blockRan%22%3A0%7D%7D%7D;
        expires=Fri, 28-May-2021 05:24:50 GMT; Max-Age=2592000; path=/; domain=.flickr.com
      X-Content-Type-Options:
      - nosniff
      X-Frame-Options:
      - SAMEORIGIN
      X-Cache:
      - Miss from cloudfront
      Via:
      - 1.1 9b097dfab92228268a37145aac5629c1.cloudfront.net (CloudFront)
      X-Amz-Cf-Pop:
      - IAD89-C1
      X-Amz-Cf-Id:
      - JNtIDLcOXcp26U6v_uLhDaW8uppzXOMVbT3LDJsRzQ9m4_l-6XQAhA==
    body:
      encoding: UTF-8
      string: '{"photos":{"page":1,"pages":325352,"perpage":1,"total":"325352","photo":[{"id":"51143524561","owner":"192840124@N05","secret":"838b290fc0","server":"65535","farm":66,"title":"LR-1234","ispublic":1,"isfriend":0,"isfamily":0}]},"stat":"ok"}'
  recorded_at: Wed, 28 Apr 2021 05:24:50 GMT
- request:
    method: get
    uri: https://www.flickr.com/services/rest?api_key=a14ff48732412aa961d9b773ca494e7d&format=json&method=flickr.photos.getinfo&nojsoncallback=1&photo_id=51143524561
    body:
      encoding: US-ASCII
      string: ''
    headers:
      User-Agent:
      - Faraday v1.4.1
      Accept-Encoding:
      - gzip;q=1.0,deflate;q=0.6,identity;q=0.3
      Accept:
      - "*/*"
  response:
    status:
      code: 200
      message: OK
    headers:
      Content-Type:
      - application/json
      Transfer-Encoding:
      - chunked
      Connection:
      - keep-alive
      Vary:
      - Accept-Encoding
      Date:
      - Wed, 28 Apr 2021 05:24:51 GMT
      Server:
      - Apache/2.4.46 (Ubuntu)
      Set-Cookie:
      - ccc=%7B%22needsConsent%22%3Afalse%2C%22managed%22%3A0%2C%22changed%22%3A0%2C%22info%22%3A%7B%22cookieBlock%22%3A%7B%22level%22%3A0%2C%22blockRan%22%3A0%7D%7D%7D;
        expires=Fri, 28-May-2021 05:24:51 GMT; Max-Age=2592000; path=/; domain=.flickr.com
      X-Content-Type-Options:
      - nosniff
      X-Frame-Options:
      - SAMEORIGIN
      X-Cache:
      - Miss from cloudfront
      Via:
      - 1.1 ed8e6c4476f2632eef2c7ce856161af0.cloudfront.net (CloudFront)
      X-Amz-Cf-Pop:
      - IAD89-C1
      X-Amz-Cf-Id:
      - N6MFT7rUdip2Ue3IEMJbtNiQqAnfjkPlZD2g19EL9iqKbkJMDVK-Ug==
    body:
      encoding: ASCII-8BIT
      string: '{"photo":{"id":"51143524561","secret":"838b290fc0","server":"65535","farm":66,"dateuploaded":"1619582734","isfavorite":0,"license":"0","safety_level":"0","rotation":0,"originalsecret":"59d634f97a","originalformat":"jpg","owner":{"nsid":"192840124@N05","username":"Steve
        Carrell","realname":"Steve Carrell","location":"","iconserver":"0","iconfarm":0,"path_alias":null},"title":{"_content":"LR-1234"},"description":{"_content":""},"visibility":{"ispublic":1,"isfriend":0,"isfamily":0},"dates":{"posted":"1619582734","taken":"2021-04-25
        16:27:10","takengranularity":"0","takenunknown":"0","lastupdate":"1619583192"},"views":"0","editability":{"cancomment":0,"canaddmeta":0},"publiceditability":{"cancomment":1,"canaddmeta":0},"usage":{"candownload":1,"canblog":0,"canprint":0,"canshare":1},"comments":{"_content":"0"},"notes":{"note":[]},"people":{"haspeople":0},"tags":{"tag":[]},"urls":{"url":[{"type":"photopage","_content":"https:\/\/www.flickr.com\/photos\/192840124@N05\/51143524561\/"}]},"media":"photo"},"stat":"ok"}'
  recorded_at: Wed, 28 Apr 2021 05:24:51 GMT
recorded_with: VCR 6.0.0
