---
http_interactions:
- request:
    method: get
    uri: https://www.flickr.com/services/rest?api_key=a14ff48732412aa961d9b773ca494e7d&format=json&method=flickr.photos.search&nojsoncallback=1&per_page=1&text=denver,co
    body:
      encoding: US-ASCII
      string: ''
    headers:
      User-Agent:
      - Faraday v1.4.1
      Accept-Encoding:
      - gzip;q=1.0,deflate;q=0.6,identity;q=0.3
      Accept:
      - "*/*"
  response:
    status:
      code: 200
      message: OK
    headers:
      Content-Type:
      - application/json
      Content-Length:
      - '237'
      Connection:
      - keep-alive
      Date:
      - Wed, 28 Apr 2021 03:55:28 GMT
      Server:
      - Apache/2.4.46 (Ubuntu)
      Set-Cookie:
      - ccc=%7B%22needsConsent%22%3Afalse%2C%22managed%22%3A0%2C%22changed%22%3A0%2C%22info%22%3A%7B%22cookieBlock%22%3A%7B%22level%22%3A0%2C%22blockRan%22%3A0%7D%7D%7D;
        expires=Fri, 28-May-2021 03:55:28 GMT; Max-Age=2592000; path=/; domain=.flickr.com
      X-Content-Type-Options:
      - nosniff
      X-Frame-Options:
      - SAMEORIGIN
      X-Cache:
      - Miss from cloudfront
      Via:
      - 1.1 50f5f6b4e0025748bb74dce1db44c750.cloudfront.net (CloudFront)
      X-Amz-Cf-Pop:
      - IAD89-C1
      X-Amz-Cf-Id:
      - qTD62p-mu-BCa2rdu15zGR-4LLOPz9w0LNm1MH72nHe5l36GYYIqog==
    body:
      encoding: UTF-8
      string: '{"photos":{"page":1,"pages":14957,"perpage":1,"total":"14957","photo":[{"id":"51142231625","owner":"20544648@N06","secret":"b81631d2df","server":"65535","farm":66,"title":"IMG_23478","ispublic":1,"isfriend":0,"isfamily":0}]},"stat":"ok"}'
  recorded_at: Wed, 28 Apr 2021 03:55:28 GMT
- request:
    method: get
    uri: https://www.flickr.com/services/rest?api_key=a14ff48732412aa961d9b773ca494e7d&format=json&method=flickr.photos.getinfo&nojsoncallback=1&photo_id=51142231625
    body:
      encoding: US-ASCII
      string: ''
    headers:
      User-Agent:
      - Faraday v1.4.1
      Accept-Encoding:
      - gzip;q=1.0,deflate;q=0.6,identity;q=0.3
      Accept:
      - "*/*"
  response:
    status:
      code: 200
      message: OK
    headers:
      Content-Type:
      - application/json
      Transfer-Encoding:
      - chunked
      Connection:
      - keep-alive
      Vary:
      - Accept-Encoding
      Date:
      - Wed, 28 Apr 2021 03:55:32 GMT
      Server:
      - Apache/2.4.46 (Ubuntu)
      Set-Cookie:
      - ccc=%7B%22needsConsent%22%3Afalse%2C%22managed%22%3A0%2C%22changed%22%3A0%2C%22info%22%3A%7B%22cookieBlock%22%3A%7B%22level%22%3A0%2C%22blockRan%22%3A0%7D%7D%7D;
        expires=Fri, 28-May-2021 03:55:32 GMT; Max-Age=2592000; path=/; domain=.flickr.com
      X-Content-Type-Options:
      - nosniff
      X-Frame-Options:
      - SAMEORIGIN
      X-Cache:
      - Miss from cloudfront
      Via:
      - 1.1 f88487c9214731db4c82619c9183bf7b.cloudfront.net (CloudFront)
      X-Amz-Cf-Pop:
      - IAD89-C1
      X-Amz-Cf-Id:
      - zl-R6EQ14H5c5AZFjiluKO1MLKPtqhWl8ODv0IqfacE8_yAHjLGWLw==
    body:
      encoding: ASCII-8BIT
      string: '{"photo":{"id":"51142231625","secret":"b81631d2df","server":"65535","farm":66,"dateuploaded":"1619488393","isfavorite":0,"license":"0","safety_level":"0","rotation":90,"owner":{"nsid":"20544648@N06","username":"mudsharkalex","realname":"","location":null,"iconserver":"8132","iconfarm":9,"path_alias":"mudsharkalex"},"title":{"_content":"IMG_23478"},"description":{"_content":"4\/15\/2021
        -- Snowy window with the Boeing 737 Max 8''s orange disco lights on."},"visibility":{"ispublic":1,"isfriend":0,"isfamily":0},"dates":{"posted":"1619488393","taken":"2021-04-15
        19:36:33","takengranularity":"0","takenunknown":"0","lastupdate":"1619488609"},"views":"7","editability":{"cancomment":0,"canaddmeta":0},"publiceditability":{"cancomment":1,"canaddmeta":0},"usage":{"candownload":0,"canblog":0,"canprint":0,"canshare":1},"comments":{"_content":"0"},"notes":{"note":[]},"people":{"haspeople":0},"tags":{"tag":[{"id":"20499326-51142231625-3157","author":"20544648@N06","authorname":"mudsharkalex","raw":"Colorado","_content":"colorado","machine_tag":0},{"id":"20499326-51142231625-9669","author":"20544648@N06","authorname":"mudsharkalex","raw":"Denver","_content":"denver","machine_tag":0},{"id":"20499326-51142231625-85148","author":"20544648@N06","authorname":"mudsharkalex","raw":"Denver
        CO","_content":"denverco","machine_tag":0},{"id":"20499326-51142231625-2695","author":"20544648@N06","authorname":"mudsharkalex","raw":"airport","_content":"airport","machine_tag":0},{"id":"20499326-51142231625-446848","author":"20544648@N06","authorname":"mudsharkalex","raw":"Denver
        Airport","_content":"denverairport","machine_tag":0},{"id":"20499326-51142231625-9668","author":"20544648@N06","authorname":"mudsharkalex","raw":"Denver
        International Airport","_content":"denverinternationalairport","machine_tag":0},{"id":"20499326-51142231625-6720","author":"20544648@N06","authorname":"mudsharkalex","raw":"DEN","_content":"den","machine_tag":0},{"id":"20499326-51142231625-24467","author":"20544648@N06","authorname":"mudsharkalex","raw":"Boeing","_content":"boeing","machine_tag":0},{"id":"20499326-51142231625-536542","author":"20544648@N06","authorname":"mudsharkalex","raw":"Boeing
        737","_content":"boeing737","machine_tag":0},{"id":"20499326-51142231625-80338049","author":"20544648@N06","authorname":"mudsharkalex","raw":"Boeing
        737 Max","_content":"boeing737max","machine_tag":0},{"id":"20499326-51142231625-230849216","author":"20544648@N06","authorname":"mudsharkalex","raw":"Boeing
        737 Max 8","_content":"boeing737max8","machine_tag":0},{"id":"20499326-51142231625-101050","author":"20544648@N06","authorname":"mudsharkalex","raw":"737","_content":"737","machine_tag":0},{"id":"20499326-51142231625-6926422","author":"20544648@N06","authorname":"mudsharkalex","raw":"Max
        8","_content":"max8","machine_tag":0},{"id":"20499326-51142231625-521","author":"20544648@N06","authorname":"mudsharkalex","raw":"Southwest","_content":"southwest","machine_tag":0},{"id":"20499326-51142231625-108396","author":"20544648@N06","authorname":"mudsharkalex","raw":"Southwest
        Airlines","_content":"southwestairlines","machine_tag":0}]},"location":{"latitude":"39.863600","longitude":"-104.675700","accuracy":"16","context":"0","locality":{"_content":"Congressional
        District 6"},"neighbourhood":{"_content":""},"region":{"_content":"Colorado"},"country":{"_content":"United
        States"}},"geoperms":{"ispublic":1,"iscontact":0,"isfriend":0,"isfamily":0},"urls":{"url":[{"type":"photopage","_content":"https:\/\/www.flickr.com\/photos\/mudsharkalex\/51142231625\/"}]},"media":"photo"},"stat":"ok"}'
  recorded_at: Wed, 28 Apr 2021 03:55:32 GMT
- request:
    method: get
    uri: https://www.flickr.com/services/rest?api_key=a14ff48732412aa961d9b773ca494e7d&format=json&method=flickr.photos.getinfo&nojsoncallback=1&photo_id%5Bphoto%5D%5Bcomments%5D%5B_content%5D=0&photo_id%5Bphoto%5D%5Bdates%5D%5Blastupdate%5D=1619488609&photo_id%5Bphoto%5D%5Bdates%5D%5Bposted%5D=1619488393&photo_id%5Bphoto%5D%5Bdates%5D%5Btaken%5D=2021-04-15%2019:36:33&photo_id%5Bphoto%5D%5Bdates%5D%5Btakengranularity%5D=0&photo_id%5Bphoto%5D%5Bdates%5D%5Btakenunknown%5D=0&photo_id%5Bphoto%5D%5Bdateuploaded%5D=1619488393&photo_id%5Bphoto%5D%5Bdescription%5D%5B_content%5D=4/15/2021%20--%20Snowy%20window%20with%20the%20Boeing%20737%20Max%208%27s%20orange%20disco%20lights%20on.&photo_id%5Bphoto%5D%5Beditability%5D%5Bcanaddmeta%5D=0&photo_id%5Bphoto%5D%5Beditability%5D%5Bcancomment%5D=0&photo_id%5Bphoto%5D%5Bfarm%5D=66&photo_id%5Bphoto%5D%5Bgeoperms%5D%5Biscontact%5D=0&photo_id%5Bphoto%5D%5Bgeoperms%5D%5Bisfamily%5D=0&photo_id%5Bphoto%5D%5Bgeoperms%5D%5Bisfriend%5D=0&photo_id%5Bphoto%5D%5Bgeoperms%5D%5Bispublic%5D=1&photo_id%5Bphoto%5D%5Bid%5D=51142231625&photo_id%5Bphoto%5D%5Bisfavorite%5D=0&photo_id%5Bphoto%5D%5Blicense%5D=0&photo_id%5Bphoto%5D%5Blocation%5D%5Baccuracy%5D=16&photo_id%5Bphoto%5D%5Blocation%5D%5Bcontext%5D=0&photo_id%5Bphoto%5D%5Blocation%5D%5Bcountry%5D%5B_content%5D=United%20States&photo_id%5Bphoto%5D%5Blocation%5D%5Blatitude%5D=39.863600&photo_id%5Bphoto%5D%5Blocation%5D%5Blocality%5D%5B_content%5D=Congressional%20District%206&photo_id%5Bphoto%5D%5Blocation%5D%5Blongitude%5D=-104.675700&photo_id%5Bphoto%5D%5Blocation%5D%5Bneighbourhood%5D%5B_content%5D=&photo_id%5Bphoto%5D%5Blocation%5D%5Bregion%5D%5B_content%5D=Colorado&photo_id%5Bphoto%5D%5Bmedia%5D=photo&&photo_id%5Bphoto%5D%5Bowner%5D%5Biconfarm%5D=9&photo_id%5Bphoto%5D%5Bowner%5D%5Biconserver%5D=8132&photo_id%5Bphoto%5D%5Bowner%5D%5Blocation%5D&photo_id%5Bphoto%5D%5Bowner%5D%5Bnsid%5D=20544648@N06&photo_id%5Bphoto%5D%5Bowner%5D%5Bpath_alias%5D=mudsharkalex&photo_id%5Bphoto%5D%5Bowner%5D%5Brealname%5D=&photo_id%5Bphoto%5D%5Bowner%5D%5Busername%5D=mudsharkalex&photo_id%5Bphoto%5D%5Bpeople%5D%5Bhaspeople%5D=0&photo_id%5Bphoto%5D%5Bpubliceditability%5D%5Bcanaddmeta%5D=0&photo_id%5Bphoto%5D%5Bpubliceditability%5D%5Bcancomment%5D=1&photo_id%5Bphoto%5D%5Brotation%5D=90&photo_id%5Bphoto%5D%5Bsafety_level%5D=0&photo_id%5Bphoto%5D%5Bsecret%5D=b81631d2df&photo_id%5Bphoto%5D%5Bserver%5D=65535&photo_id%5Bphoto%5D%5Btags%5D%5Btag%5D%5B0%5D%5B_content%5D=colorado&photo_id%5Bphoto%5D%5Btags%5D%5Btag%5D%5B0%5D%5Bauthor%5D=20544648@N06&photo_id%5Bphoto%5D%5Btags%5D%5Btag%5D%5B0%5D%5Bauthorname%5D=mudsharkalex&photo_id%5Bphoto%5D%5Btags%5D%5Btag%5D%5B0%5D%5Bid%5D=20499326-51142231625-3157&photo_id%5Bphoto%5D%5Btags%5D%5Btag%5D%5B0%5D%5Bmachine_tag%5D=0&photo_id%5Bphoto%5D%5Btags%5D%5Btag%5D%5B0%5D%5Braw%5D=Colorado&photo_id%5Bphoto%5D%5Btags%5D%5Btag%5D%5B1%5D%5B_content%5D=denver&photo_id%5Bphoto%5D%5Btags%5D%5Btag%5D%5B1%5D%5Bauthor%5D=20544648@N06&photo_id%5Bphoto%5D%5Btags%5D%5Btag%5D%5B1%5D%5Bauthorname%5D=mudsharkalex&photo_id%5Bphoto%5D%5Btags%5D%5Btag%5D%5B1%5D%5Bid%5D=20499326-51142231625-9669&photo_id%5Bphoto%5D%5Btags%5D%5Btag%5D%5B1%5D%5Bmachine_tag%5D=0&photo_id%5Bphoto%5D%5Btags%5D%5Btag%5D%5B1%5D%5Braw%5D=Denver&photo_id%5Bphoto%5D%5Btags%5D%5Btag%5D%5B2%5D%5B_content%5D=denverco&photo_id%5Bphoto%5D%5Btags%5D%5Btag%5D%5B2%5D%5Bauthor%5D=20544648@N06&photo_id%5Bphoto%5D%5Btags%5D%5Btag%5D%5B2%5D%5Bauthorname%5D=mudsharkalex&photo_id%5Bphoto%5D%5Btags%5D%5Btag%5D%5B2%5D%5Bid%5D=20499326-51142231625-85148&photo_id%5Bphoto%5D%5Btags%5D%5Btag%5D%5B2%5D%5Bmachine_tag%5D=0&photo_id%5Bphoto%5D%5Btags%5D%5Btag%5D%5B2%5D%5Braw%5D=Denver%20CO&photo_id%5Bphoto%5D%5Btags%5D%5Btag%5D%5B3%5D%5B_content%5D=airport&photo_id%5Bphoto%5D%5Btags%5D%5Btag%5D%5B3%5D%5Bauthor%5D=20544648@N06&photo_id%5Bphoto%5D%5Btags%5D%5Btag%5D%5B3%5D%5Bauthorname%5D=mudsharkalex&photo_id%5Bphoto%5D%5Btags%5D%5Btag%5D%5B3%5D%5Bid%5D=20499326-51142231625-2695&photo_id%5Bphoto%5D%5Btags%5D%5Btag%5D%5B3%5D%5Bmachine_tag%5D=0&photo_id%5Bphoto%5D%5Btags%5D%5Btag%5D%5B3%5D%5Braw%5D=airport&photo_id%5Bphoto%5D%5Btags%5D%5Btag%5D%5B4%5D%5B_content%5D=denverairport&photo_id%5Bphoto%5D%5Btags%5D%5Btag%5D%5B4%5D%5Bauthor%5D=20544648@N06&photo_id%5Bphoto%5D%5Btags%5D%5Btag%5D%5B4%5D%5Bauthorname%5D=mudsharkalex&photo_id%5Bphoto%5D%5Btags%5D%5Btag%5D%5B4%5D%5Bid%5D=20499326-51142231625-446848&photo_id%5Bphoto%5D%5Btags%5D%5Btag%5D%5B4%5D%5Bmachine_tag%5D=0&photo_id%5Bphoto%5D%5Btags%5D%5Btag%5D%5B4%5D%5Braw%5D=Denver%20Airport&photo_id%5Bphoto%5D%5Btags%5D%5Btag%5D%5B5%5D%5B_content%5D=denverinternationalairport&photo_id%5Bphoto%5D%5Btags%5D%5Btag%5D%5B5%5D%5Bauthor%5D=20544648@N06&photo_id%5Bphoto%5D%5Btags%5D%5Btag%5D%5B5%5D%5Bauthorname%5D=mudsharkalex&photo_id%5Bphoto%5D%5Btags%5D%5Btag%5D%5B5%5D%5Bid%5D=20499326-51142231625-9668&photo_id%5Bphoto%5D%5Btags%5D%5Btag%5D%5B5%5D%5Bmachine_tag%5D=0&photo_id%5Bphoto%5D%5Btags%5D%5Btag%5D%5B5%5D%5Braw%5D=Denver%20International%20Airport&photo_id%5Bphoto%5D%5Btags%5D%5Btag%5D%5B6%5D%5B_content%5D=den&photo_id%5Bphoto%5D%5Btags%5D%5Btag%5D%5B6%5D%5Bauthor%5D=20544648@N06&photo_id%5Bphoto%5D%5Btags%5D%5Btag%5D%5B6%5D%5Bauthorname%5D=mudsharkalex&photo_id%5Bphoto%5D%5Btags%5D%5Btag%5D%5B6%5D%5Bid%5D=20499326-51142231625-6720&photo_id%5Bphoto%5D%5Btags%5D%5Btag%5D%5B6%5D%5Bmachine_tag%5D=0&photo_id%5Bphoto%5D%5Btags%5D%5Btag%5D%5B6%5D%5Braw%5D=DEN&photo_id%5Bphoto%5D%5Btags%5D%5Btag%5D%5B7%5D%5B_content%5D=boeing&photo_id%5Bphoto%5D%5Btags%5D%5Btag%5D%5B7%5D%5Bauthor%5D=20544648@N06&photo_id%5Bphoto%5D%5Btags%5D%5Btag%5D%5B7%5D%5Bauthorname%5D=mudsharkalex&photo_id%5Bphoto%5D%5Btags%5D%5Btag%5D%5B7%5D%5Bid%5D=20499326-51142231625-24467&photo_id%5Bphoto%5D%5Btags%5D%5Btag%5D%5B7%5D%5Bmachine_tag%5D=0&photo_id%5Bphoto%5D%5Btags%5D%5Btag%5D%5B7%5D%5Braw%5D=Boeing&photo_id%5Bphoto%5D%5Btags%5D%5Btag%5D%5B8%5D%5B_content%5D=boeing737&photo_id%5Bphoto%5D%5Btags%5D%5Btag%5D%5B8%5D%5Bauthor%5D=20544648@N06&photo_id%5Bphoto%5D%5Btags%5D%5Btag%5D%5B8%5D%5Bauthorname%5D=mudsharkalex&photo_id%5Bphoto%5D%5Btags%5D%5Btag%5D%5B8%5D%5Bid%5D=20499326-51142231625-536542&photo_id%5Bphoto%5D%5Btags%5D%5Btag%5D%5B8%5D%5Bmachine_tag%5D=0&photo_id%5Bphoto%5D%5Btags%5D%5Btag%5D%5B8%5D%5Braw%5D=Boeing%20737&photo_id%5Bphoto%5D%5Btags%5D%5Btag%5D%5B9%5D%5B_content%5D=boeing737max&photo_id%5Bphoto%5D%5Btags%5D%5Btag%5D%5B9%5D%5Bauthor%5D=20544648@N06&photo_id%5Bphoto%5D%5Btags%5D%5Btag%5D%5B9%5D%5Bauthorname%5D=mudsharkalex&photo_id%5Bphoto%5D%5Btags%5D%5Btag%5D%5B9%5D%5Bid%5D=20499326-51142231625-80338049&photo_id%5Bphoto%5D%5Btags%5D%5Btag%5D%5B9%5D%5Bmachine_tag%5D=0&photo_id%5Bphoto%5D%5Btags%5D%5Btag%5D%5B9%5D%5Braw%5D=Boeing%20737%20Max&photo_id%5Bphoto%5D%5Btags%5D%5Btag%5D%5B10%5D%5B_content%5D=boeing737max8&photo_id%5Bphoto%5D%5Btags%5D%5Btag%5D%5B10%5D%5Bauthor%5D=20544648@N06&photo_id%5Bphoto%5D%5Btags%5D%5Btag%5D%5B10%5D%5Bauthorname%5D=mudsharkalex&photo_id%5Bphoto%5D%5Btags%5D%5Btag%5D%5B10%5D%5Bid%5D=20499326-51142231625-230849216&photo_id%5Bphoto%5D%5Btags%5D%5Btag%5D%5B10%5D%5Bmachine_tag%5D=0&photo_id%5Bphoto%5D%5Btags%5D%5Btag%5D%5B10%5D%5Braw%5D=Boeing%20737%20Max%208&photo_id%5Bphoto%5D%5Btags%5D%5Btag%5D%5B11%5D%5B_content%5D=737&photo_id%5Bphoto%5D%5Btags%5D%5Btag%5D%5B11%5D%5Bauthor%5D=20544648@N06&photo_id%5Bphoto%5D%5Btags%5D%5Btag%5D%5B11%5D%5Bauthorname%5D=mudsharkalex&photo_id%5Bphoto%5D%5Btags%5D%5Btag%5D%5B11%5D%5Bid%5D=20499326-51142231625-101050&photo_id%5Bphoto%5D%5Btags%5D%5Btag%5D%5B11%5D%5Bmachine_tag%5D=0&photo_id%5Bphoto%5D%5Btags%5D%5Btag%5D%5B11%5D%5Braw%5D=737&photo_id%5Bphoto%5D%5Btags%5D%5Btag%5D%5B12%5D%5B_content%5D=max8&photo_id%5Bphoto%5D%5Btags%5D%5Btag%5D%5B12%5D%5Bauthor%5D=20544648@N06&photo_id%5Bphoto%5D%5Btags%5D%5Btag%5D%5B12%5D%5Bauthorname%5D=mudsharkalex&photo_id%5Bphoto%5D%5Btags%5D%5Btag%5D%5B12%5D%5Bid%5D=20499326-51142231625-6926422&photo_id%5Bphoto%5D%5Btags%5D%5Btag%5D%5B12%5D%5Bmachine_tag%5D=0&photo_id%5Bphoto%5D%5Btags%5D%5Btag%5D%5B12%5D%5Braw%5D=Max%208&photo_id%5Bphoto%5D%5Btags%5D%5Btag%5D%5B13%5D%5B_content%5D=southwest&photo_id%5Bphoto%5D%5Btags%5D%5Btag%5D%5B13%5D%5Bauthor%5D=20544648@N06&photo_id%5Bphoto%5D%5Btags%5D%5Btag%5D%5B13%5D%5Bauthorname%5D=mudsharkalex&photo_id%5Bphoto%5D%5Btags%5D%5Btag%5D%5B13%5D%5Bid%5D=20499326-51142231625-521&photo_id%5Bphoto%5D%5Btags%5D%5Btag%5D%5B13%5D%5Bmachine_tag%5D=0&photo_id%5Bphoto%5D%5Btags%5D%5Btag%5D%5B13%5D%5Braw%5D=Southwest&photo_id%5Bphoto%5D%5Btags%5D%5Btag%5D%5B14%5D%5B_content%5D=southwestairlines&photo_id%5Bphoto%5D%5Btags%5D%5Btag%5D%5B14%5D%5Bauthor%5D=20544648@N06&photo_id%5Bphoto%5D%5Btags%5D%5Btag%5D%5B14%5D%5Bauthorname%5D=mudsharkalex&photo_id%5Bphoto%5D%5Btags%5D%5Btag%5D%5B14%5D%5Bid%5D=20499326-51142231625-108396&photo_id%5Bphoto%5D%5Btags%5D%5Btag%5D%5B14%5D%5Bmachine_tag%5D=0&photo_id%5Bphoto%5D%5Btags%5D%5Btag%5D%5B14%5D%5Braw%5D=Southwest%20Airlines&photo_id%5Bphoto%5D%5Btitle%5D%5B_content%5D=IMG_23478&photo_id%5Bphoto%5D%5Burls%5D%5Burl%5D%5B0%5D%5B_content%5D=https://www.flickr.com/photos/mudsharkalex/51142231625/&photo_id%5Bphoto%5D%5Burls%5D%5Burl%5D%5B0%5D%5Btype%5D=photopage&photo_id%5Bphoto%5D%5Busage%5D%5Bcanblog%5D=0&photo_id%5Bphoto%5D%5Busage%5D%5Bcandownload%5D=0&photo_id%5Bphoto%5D%5Busage%5D%5Bcanprint%5D=0&photo_id%5Bphoto%5D%5Busage%5D%5Bcanshare%5D=1&photo_id%5Bphoto%5D%5Bviews%5D=7&photo_id%5Bphoto%5D%5Bvisibility%5D%5Bisfamily%5D=0&photo_id%5Bphoto%5D%5Bvisibility%5D%5Bisfriend%5D=0&photo_id%5Bphoto%5D%5Bvisibility%5D%5Bispublic%5D=1&photo_id%5Bstat%5D=ok
    body:
      encoding: US-ASCII
      string: ''
    headers:
      User-Agent:
      - Faraday v1.4.1
      Accept-Encoding:
      - gzip;q=1.0,deflate;q=0.6,identity;q=0.3
      Accept:
      - "*/*"
  response:
    status:
      code: 413
      message: Request Entity Too Large
    headers:
      Server:
      - CloudFront
      Date:
      - Wed, 28 Apr 2021 03:55:46 GMT
      Content-Type:
      - text/html
      Content-Length:
      - '915'
      Connection:
      - close
      X-Cache:
      - Error from cloudfront
      Via:
      - 1.1 c1802b2f6f4e591b6df12b5a8a9876a7.cloudfront.net (CloudFront)
      X-Amz-Cf-Pop:
      - IAD89-C1
      X-Amz-Cf-Id:
      - nKi5FEWhU1LuLTle4YN3TTsAcTUWjtT42LOKAUUvOKImcZh7q4es3w==
    body:
      encoding: UTF-8
      string: |-
        <!DOCTYPE HTML PUBLIC "-//W3C//DTD HTML 4.01 Transitional//EN" "http://www.w3.org/TR/html4/loose.dtd">
        <HTML><HEAD><META HTTP-EQUIV="Content-Type" CONTENT="text/html; charset=iso-8859-1">
        <TITLE>ERROR: The request could not be satisfied</TITLE>
        </HEAD><BODY>
        <H1>413 ERROR</H1>
        <H2>The request could not be satisfied.</H2>
        <HR noshade size="1px">
        Bad request.
        We can't connect to the server for this app or website at this time. There might be too much traffic or a configuration error. Try again later, or contact the app or website owner.
        <BR clear="all">
        If you provide content to customers through CloudFront, you can find steps to troubleshoot and help prevent this error by reviewing the CloudFront documentation.
        <BR clear="all">
        <HR noshade size="1px">
        <PRE>
        Generated by cloudfront (CloudFront)
        Request ID: nKi5FEWhU1LuLTle4YN3TTsAcTUWjtT42LOKAUUvOKImcZh7q4es3w==
        </PRE>
        <ADDRESS>
        </ADDRESS>
        </BODY></HTML>
  recorded_at: Wed, 28 Apr 2021 03:55:47 GMT
recorded_with: VCR 6.0.0
