---
http_interactions:
- request:
    method: get
    uri: https://www.flickr.com/services/rest?api_key=a14ff48732412aa961d9b773ca494e7d&format=json&method=flickr.photos.search&nojsoncallback=1&per_page=1&text=denver,%20co
    body:
      encoding: US-ASCII
      string: ''
    headers:
      User-Agent:
      - Faraday v1.4.1
      Accept-Encoding:
      - gzip;q=1.0,deflate;q=0.6,identity;q=0.3
      Accept:
      - "*/*"
  response:
    status:
      code: 200
      message: OK
    headers:
      Content-Type:
      - application/json
      Content-Length:
      - '283'
      Connection:
      - keep-alive
      Date:
      - Sun, 25 Apr 2021 22:46:12 GMT
      Server:
      - Apache/2.4.46 (Ubuntu)
      Set-Cookie:
      - ccc=%7B%22needsConsent%22%3Afalse%2C%22managed%22%3A0%2C%22changed%22%3A0%2C%22info%22%3A%7B%22cookieBlock%22%3A%7B%22level%22%3A0%2C%22blockRan%22%3A0%7D%7D%7D;
        expires=Tue, 25-May-2021 22:46:12 GMT; Max-Age=2592000; path=/; domain=.flickr.com
      X-Content-Type-Options:
      - nosniff
      X-Frame-Options:
      - SAMEORIGIN
      X-Cache:
      - Miss from cloudfront
      Via:
      - 1.1 dc81af6f14945ade0fd126a735f82ac3.cloudfront.net (CloudFront)
      X-Amz-Cf-Pop:
      - IAD50-C2
      X-Amz-Cf-Id:
      - sLsxZrlakJtCnDURx7lijdlqucwVOqU0bl4cB5XVnXkK8JQClj1_8g==
    body:
      encoding: UTF-8
      string: '{"photos":{"page":1,"pages":288680,"perpage":1,"total":"288680","photo":[{"id":"51137554072","owner":"192565815@N03","secret":"cedd17649b","server":"65535","farm":66,"title":"Detoxification
        Centers at Phoenix, AZ and Denver, CO","ispublic":1,"isfriend":0,"isfamily":0}]},"stat":"ok"}'
  recorded_at: Sun, 25 Apr 2021 22:46:10 GMT
- request:
    method: get
    uri: https://www.flickr.com/services/rest?api_key=a14ff48732412aa961d9b773ca494e7d&format=json&method=flickr.photos.getinfo&nojsoncallback=1&photo_id=51137554072
    body:
      encoding: US-ASCII
      string: ''
    headers:
      User-Agent:
      - Faraday v1.4.1
      Accept-Encoding:
      - gzip;q=1.0,deflate;q=0.6,identity;q=0.3
      Accept:
      - "*/*"
  response:
    status:
      code: 200
      message: OK
    headers:
      Content-Type:
      - application/json
      Transfer-Encoding:
      - chunked
      Connection:
      - keep-alive
      Vary:
      - Accept-Encoding
      Date:
      - Sun, 25 Apr 2021 22:46:12 GMT
      Server:
      - Apache/2.4.46 (Ubuntu)
      Set-Cookie:
      - ccc=%7B%22needsConsent%22%3Afalse%2C%22managed%22%3A0%2C%22changed%22%3A0%2C%22info%22%3A%7B%22cookieBlock%22%3A%7B%22level%22%3A0%2C%22blockRan%22%3A0%7D%7D%7D;
        expires=Tue, 25-May-2021 22:46:12 GMT; Max-Age=2592000; path=/; domain=.flickr.com
      X-Content-Type-Options:
      - nosniff
      X-Frame-Options:
      - SAMEORIGIN
      X-Cache:
      - Miss from cloudfront
      Via:
      - 1.1 d439433d975e4e608c1677c8e16e7fe2.cloudfront.net (CloudFront)
      X-Amz-Cf-Pop:
      - IAD50-C2
      X-Amz-Cf-Id:
      - "-EG0ZHKjjl6k8303s64BMMAhNWqljUNweW1LVDOanZ0oSfrtk3QC3w=="
    body:
      encoding: ASCII-8BIT
      string: '{"photo":{"id":"51137554072","secret":"cedd17649b","server":"65535","farm":66,"dateuploaded":"1619382397","isfavorite":0,"license":"0","safety_level":"0","rotation":0,"originalsecret":"1a411df4f2","originalformat":"jpg","owner":{"nsid":"192565815@N03","username":"info.gallusdetox89","realname":"Gallus
        Detox","location":"","iconserver":"65535","iconfarm":66,"path_alias":null},"title":{"_content":"Detoxification
        Centers at Phoenix, AZ and Denver, CO"},"description":{"_content":"The liquor
        and medicine detoxification apps at our <a href=\"https:\/\/www.gallusdetox.com\/locations\/arizona\/phoenix-detox-center\/\"
        rel=\"noreferrer nofollow\">Gallus Detox<\/a> Phoenix, AZ and Denver, CO-area
        centers give you time for you to cure, both emotionally and physically. Currently
        incorporated, clinically researched maintenance which helps the body adapt
        to modify, even though enabling your own mind find new tactics to handle all
        the stressors on your own life."},"visibility":{"ispublic":1,"isfriend":0,"isfamily":0},"dates":{"posted":"1619382397","taken":"2021-04-25
        13:01:13","takengranularity":0,"takenunknown":"1","lastupdate":"1619382397"},"views":"0","editability":{"cancomment":0,"canaddmeta":0},"publiceditability":{"cancomment":1,"canaddmeta":0},"usage":{"candownload":1,"canblog":0,"canprint":0,"canshare":1},"comments":{"_content":"0"},"notes":{"note":[]},"people":{"haspeople":0},"tags":{"tag":[{"id":"192542761-51137554072-519407414","author":"192565815@N03","authorname":"info.gallusdetox89","raw":"denver
        detox center","_content":"denverdetoxcenter","machine_tag":false},{"id":"192542761-51137554072-519407419","author":"192565815@N03","authorname":"info.gallusdetox89","raw":"denver
        detox","_content":"denverdetox","machine_tag":false},{"id":"192542761-51137554072-519407424","author":"192565815@N03","authorname":"info.gallusdetox89","raw":"detox
        denver","_content":"detoxdenver","machine_tag":false},{"id":"192542761-51137554072-519407429","author":"192565815@N03","authorname":"info.gallusdetox89","raw":"detox
        denver co","_content":"detoxdenverco","machine_tag":false},{"id":"192542761-51137554072-519407434","author":"192565815@N03","authorname":"info.gallusdetox89","raw":"colorado
        detox","_content":"coloradodetox","machine_tag":false},{"id":"192542761-51137554072-518588332","author":"192565815@N03","authorname":"info.gallusdetox89","raw":"phoenix
        detox center","_content":"phoenixdetoxcenter","machine_tag":false},{"id":"192542761-51137554072-342477651","author":"192565815@N03","authorname":"info.gallusdetox89","raw":"phoenix
        detox","_content":"phoenixdetox","machine_tag":false},{"id":"192542761-51137554072-518588337","author":"192565815@N03","authorname":"info.gallusdetox89","raw":"detox
        phoenix","_content":"detoxphoenix","machine_tag":false}]},"urls":{"url":[{"type":"photopage","_content":"https:\/\/www.flickr.com\/photos\/192565815@N03\/51137554072\/"}]},"media":"photo"},"stat":"ok"}'
  recorded_at: Sun, 25 Apr 2021 22:46:10 GMT
recorded_with: VCR 6.0.0
