---
http_interactions:
- request:
    method: get
    uri: https://www.flickr.com/services/rest?api_key=a14ff48732412aa961d9b773ca494e7d&format=json&method=flickr.photos.search&nojsoncallback=1&per_page=1&text=-20
    body:
      encoding: US-ASCII
      string: ''
    headers:
      User-Agent:
      - Faraday v1.4.1
      Accept-Encoding:
      - gzip;q=1.0,deflate;q=0.6,identity;q=0.3
      Accept:
      - "*/*"
  response:
    status:
      code: 200
      message: OK
    headers:
      Content-Type:
      - application/json
      Content-Length:
      - '244'
      Connection:
      - keep-alive
      Date:
      - Wed, 28 Apr 2021 03:33:40 GMT
      Server:
      - Apache/2.4.46 (Ubuntu)
      Set-Cookie:
      - ccc=%7B%22needsConsent%22%3Afalse%2C%22managed%22%3A0%2C%22changed%22%3A0%2C%22info%22%3A%7B%22cookieBlock%22%3A%7B%22level%22%3A0%2C%22blockRan%22%3A0%7D%7D%7D;
        expires=Fri, 28-May-2021 03:33:40 GMT; Max-Age=2592000; path=/; domain=.flickr.com
      X-Content-Type-Options:
      - nosniff
      X-Frame-Options:
      - SAMEORIGIN
      X-Cache:
      - Miss from cloudfront
      Via:
      - 1.1 0ce0d15fd334c471d520fc20b4af3956.cloudfront.net (CloudFront)
      X-Amz-Cf-Pop:
      - IAD50-C2
      X-Amz-Cf-Id:
      - lGSPxSjQkWf-gseaWLFRlJWDy3OxzF6VOd-NFJHUAjjAqW2ohKGGIw==
    body:
      encoding: UTF-8
      string: '{"photos":{"page":1,"pages":470999,"perpage":1,"total":"470999","photo":[{"id":"51142808332","owner":"46617160@N02","secret":"9ae1553c44","server":"65535","farm":66,"title":"DSC07263-2.jpg","ispublic":1,"isfriend":0,"isfamily":0}]},"stat":"ok"}'
  recorded_at: Wed, 28 Apr 2021 03:33:40 GMT
- request:
    method: get
    uri: https://www.flickr.com/services/rest?api_key=a14ff48732412aa961d9b773ca494e7d&format=json&method=flickr.photos.getinfo&nojsoncallback=1&photo_id=51142808332
    body:
      encoding: US-ASCII
      string: ''
    headers:
      User-Agent:
      - Faraday v1.4.1
      Accept-Encoding:
      - gzip;q=1.0,deflate;q=0.6,identity;q=0.3
      Accept:
      - "*/*"
  response:
    status:
      code: 200
      message: OK
    headers:
      Content-Type:
      - application/json
      Transfer-Encoding:
      - chunked
      Connection:
      - keep-alive
      Vary:
      - Accept-Encoding
      Date:
      - Wed, 28 Apr 2021 03:33:40 GMT
      Server:
      - Apache/2.4.46 (Ubuntu)
      Set-Cookie:
      - ccc=%7B%22needsConsent%22%3Afalse%2C%22managed%22%3A0%2C%22changed%22%3A0%2C%22info%22%3A%7B%22cookieBlock%22%3A%7B%22level%22%3A0%2C%22blockRan%22%3A0%7D%7D%7D;
        expires=Fri, 28-May-2021 03:33:40 GMT; Max-Age=2592000; path=/; domain=.flickr.com
      X-Content-Type-Options:
      - nosniff
      X-Frame-Options:
      - SAMEORIGIN
      X-Cache:
      - Miss from cloudfront
      Via:
      - 1.1 966a4e45512437c14125c564c492a2d6.cloudfront.net (CloudFront)
      X-Amz-Cf-Pop:
      - IAD50-C2
      X-Amz-Cf-Id:
      - hdonx4JiQ969uDXFT6qumx_8QScRNdFyUJmH0eNKg6SwUAT5VuBvPA==
    body:
      encoding: ASCII-8BIT
      string: '{"photo":{"id":"51142808332","secret":"9ae1553c44","server":"65535","farm":66,"dateuploaded":"1619580814","isfavorite":0,"license":"0","safety_level":"0","rotation":0,"owner":{"nsid":"46617160@N02","username":"Claudia
        Arciga","realname":"Claudia Janneth Arciga L\u00f3pez","location":"","iconserver":"7458","iconfarm":8,"path_alias":"claudia_arciga"},"title":{"_content":"DSC07263-2.jpg"},"description":{"_content":""},"visibility":{"ispublic":1,"isfriend":0,"isfamily":0},"dates":{"posted":"1619580814","taken":"2021-04-15
        11:33:23","takengranularity":"0","takenunknown":"0","lastupdate":"1619580818"},"views":"0","editability":{"cancomment":0,"canaddmeta":0},"publiceditability":{"cancomment":1,"canaddmeta":0},"usage":{"candownload":0,"canblog":0,"canprint":0,"canshare":1},"comments":{"_content":"0"},"notes":{"note":[]},"people":{"haspeople":0},"tags":{"tag":[]},"urls":{"url":[{"type":"photopage","_content":"https:\/\/www.flickr.com\/photos\/claudia_arciga\/51142808332\/"}]},"media":"photo"},"stat":"ok"}'
  recorded_at: Wed, 28 Apr 2021 03:33:40 GMT
recorded_with: VCR 6.0.0
